
{
  "code": 200,
  "meta": {
    "pagination": {
      "total": 1775,
      "pages": 178,
      "page": 1,
      "limit": 10
    }
  },
  "data": [
    {
      "id": 1808,
      "user_id": 3747,
      "title": "Curatio cibo abbas aptus currus vere aggredior architecto uterque arbustum.",
      "body": "Aspicio nesciunt conitor. Despirmatio vulnus patrocinor. Tristis accusamus tabella. Pariatur consequatur summopere. Tego rerum et. Aliquam et tui. Aliquam vinculum defaeco. Curiositas aduro subnecto. Admoveo provident cum. Desolo quas deinde. Aperio calculus usitas. Vox coma torqueo. Deripio quae careo. Strenuus est vitium. Peior bis fuga. Deleniti tamen stillicidium. Eius eaque tabula. Ascisco aduro et. Pariatur vindico cometes. Dolore caterva adnuo. Bos nihil comedo. Error videlicet colloco."
    },
    {
      "id": 1807,
      "user_id": 3746,
      "title": "Congregatio depulso curiositas spectaculum comis validus perferendis caute dolor velociter amo angulus voluptas taedium arbustum complectus acerbitas textor.",
      "body": "Cado caveo labore. Infit valde natus. Spoliatio cumque culpo. Deduco tam adsum. Varius arbor adeptio. Sponte denuo vesper. Eos eligendi blanditiis. Ultra uredo causa. Acer cupressus cruentus. Adficio demens casso. Corona quasi attollo. Cruentus acidus depraedor. Verbera assumenda rerum. Laboriosam tutamen sufficio. Ater arcesso arcus."
    },
    {
      "id": 1804,
      "user_id": 3742,
      "title": "Deleniti deficio tonsor vultuosus arcesso enim verbera spargo voluptate eos.",
      "body": "Colo cinis velit. Desipio auctus accusamus. Canonicus ante voluptas. Cenaculum utrimque amet. Thema odit amitto. Amor careo vociferor. Vox saepe suspendo. Textilis qui absconditus. Ventus degero quibusdam. Cariosus succedo triumphus. Aequus utor quasi. Aiunt cariosus ager. Tamdiu patior clamo. Vinculum patria stips. Deleo adopto delectatio. Cupio velum viduata. Tutamen victoria incidunt. Pecco tyrannus consequatur."
    },
    {
      "id": 1802,
      "user_id": 3735,
      "title": "Asperiores vesica venustas ventosus crur odit crebro esse utor nulla canonicus aduro adicio pauci candidus cervus aptus decor.",
      "body": "Calamitas corrupti unus. Adfero vergo contra. Corporis soleo architecto. Tricesimus rerum curvo. Vel eum caries. Et aut utrum. Xiphias canis contigo. Tumultus aeneus coepi. Sordeo placeat thesaurus. Vergo asporto aggredior. Aequus vilicus voluntarius. Cervus aeger calco. Comptus copiose cogo. Sublime dolorum defigo. Et voluptatem voluptatem. Ventito aureus capitulus. Victoria sperno tersus."
    },
    {
      "id": 1801,
      "user_id": 3733,
      "title": "Adaugeo certus correptius credo quibusdam textor ea apparatus altus audeo et carus.",
      "body": "Auctor curto surgo. Bibo capto et. Viduata defetiscor super. Aegrotatio terra celebrer. Cometes asperiores decimus. Textus adhuc vacuus. Ager amaritudo aegrus. Usitas velut ancilla. Aut vallum abeo. Quis coerceo credo. Convoco tabula utique. Colligo qui depraedor. Tamen solvo demum. Apto pectus territo. Quia vivo recusandae. Curso antepono conforto."
    },
    {
      "id": 1800,
      "user_id": 3729,
      "title": "Solio tyrannus aperte coniecto decipio aut trepide iusto bibo vorax.",
      "body": "Confido uberrime dens. Sto trado deduco. Quam cuppedia qui. Et itaque asporto. Denique celebrer dolores. Et voco sed. Curvus sint ait. Cibus vinco subseco. Aiunt pecus vaco. Vel ager valde. Dicta corrigo brevis. Argentum amet traho. Quo neque demo. Colloco aurum tersus. Verbum taceo subseco."
    },
    {
      "id": 1799,
      "user_id": 3728,
      "title": "Depraedor pel tempora solitudo cubitum volaticus tempore stips cruentus desparatus sequi tardus vacuus fuga callide velociter tollo.",
      "body": "Suscipio comprehendo vado. Acer careo complectus. Supra demergo curia. Rerum undique carpo. Adeptio amplexus molestiae. Coma harum ante. Tam tandem abscido. Urbanus contigo tenus. Sed contego ocer. Inventore tergum eos. Deputo alii decimus. Solvo adduco tego. Comprehendo peccatus arto. Civitas solvo xiphias. Comitatus abscido cognatus. Constans doloremque allatus. Est spes comburo. Talio cursus nemo. Adopto quos tredecim. Calamitas alveus quidem."
    },
    {
      "id": 1798,
      "user_id": 3726,
      "title": "Accusantium inventore cunae ars spero antepono vivo tondeo taedium inflammatio sono copia patruus traho ventito cilicium tantillus sulum.",
      "body": "Vomito dolor civitas. Terra subiungo sono. Voluntarius itaque ante. Claustrum corroboro quis. Commodi suppono eos. Utrimque auctor arcus. Aggero coniuratio quibusdam. Adfectus usitas defero. Tamdiu talus accendo. Viduata voluptas vomica. Ascisco ultra tenetur. Suscipit creta tenus. Bonus claudeo corrumpo. Cubo accipio villa. Totus titulus capitulus. Peior bis vindico. Iusto thorax terebro."
    },
    {
      "id": 1797,
      "user_id": 3726,
      "title": "Adsum talus sui coaegresco custodia universe defetiscor aspicio tyrannus deleo tenuis voluptatem caries vulgaris ea.",
      "body": "Cultura cena adficio. Deserunt asperiores ventosus. A ascit aqua. Tabula ipsum decens. Demonstro succedo exercitationem. Autem suggero beneficium. Tristis ipsa adhaero. Causa tabella terror. Ab viridis ut. Angulus volutabrum tepesco. Ex ventus umbra. Aestivus absorbeo turbo. Depopulo ubi minus. Adulescens corroboro arbor. Tam infit voluptas. Crinis agnitio copiose. Voveo adipisci decor."
    },
    {
      "id": 1796,
      "user_id": 3725,
      "title": "Conitor thymbra dolorem talis triginta adopto tracto.",
      "body": "Tres dolor aurum. Talio adeo aggredior. Cibus comitatus templum. Decerno armo amicitia. Depopulo cibo tricesimus. Doloremque adeptio temeritas. Vulgaris clarus peior. Tempora desino itaque. Una desparatus aegrotatio. Verbera capio absconditus. Attonbitus molestiae cimentarius. Artificiose explicabo thesaurus. Odio patrocinor denego. Cras collum creo. Ambulo rerum quibusdam. Caelestis impedit vero. Chirographum adimpleo sit."
    }
  ]
}